%YAML 1.1
%TAG !u! tag:unity3d.com,2011:
--- !u!13 &1
InputManager:
  m_ObjectHideFlags: 0
  serializedVersion: 2
  m_Axes:
  - serializedVersion: 3
    m_Name: Fire1
    descriptiveName:
    descriptiveNegativeName:
    negativeButton:
    positiveButton: left ctrl
    altNegativeButton:
    altPositiveButton: mouse 0
    gravity: 1000
    dead: 0.001
    sensitivity: 1000
    snap: 0
    invert: 0
    type: 0
    axis: 0
    joyNum: 0
  - serializedVersion: 3
    m_Name: Fire2
    descriptiveName:
    descriptiveNegativeName:
    negativeButton:
    positiveButton: left alt
    altNegativeButton:
    altPositiveButton: mouse 1
    gravity: 1000
    dead: 0.001
    sensitivity: 1000
    snap: 0
    invert: 0
    type: 0
    axis: 0
    joyNum: 0
  - serializedVersion: 3
    m_Name: Fire3
    descriptiveName:
    descriptiveNegativeName:
    negativeButton:
    positiveButton: left cmd
    altNegativeButton:
    altPositiveButton: mouse 2
    gravity: 1000
    dead: 0.001
    sensitivity: 1000
    snap: 0
    invert: 0
    type: 0
    axis: 0
    joyNum: 0
  - serializedVersion: 3
    m_Name: Jump
    descriptiveName:
    descriptiveNegativeName:
    negativeButton:
    positiveButton: space
    altNegativeButton:
    altPositiveButton:
    gravity: 1000
    dead: 0.001
    sensitivity: 1000
    snap: 0
    invert: 0
    type: 0
    axis: 0
    joyNum: 0
  - serializedVersion: 3
    m_Name: Mouse X
    descriptiveName:
    descriptiveNegativeName:
    negativeButton:
    positiveButton:
    altNegativeButton:
    altPositiveButton:
    gravity: 0
    dead: 0
    sensitivity: 0.1
    snap: 0
    invert: 0
    type: 1
    axis: 0
    joyNum: 0
  - serializedVersion: 3
    m_Name: Mouse Y
    descriptiveName:
    descriptiveNegativeName:
    negativeButton:
    positiveButton:
    altNegativeButton:
    altPositiveButton:
    gravity: 0
    dead: 0
    sensitivity: 0.1
    snap: 0
    invert: 0
    type: 1
    axis: 1
    joyNum: 0
  - serializedVersion: 3
    m_Name: Mouse ScrollWheel
    descriptiveName:
    descriptiveNegativeName:
    negativeButton:
    positiveButton:
    altNegativeButton:
    altPositiveButton:
    gravity: 0
    dead: 0
    sensitivity: 0.1
    snap: 0
    invert: 0
    type: 1
    axis: 2
    joyNum: 0
  - serializedVersion: 3
    m_Name: Horizontal
    descriptiveName:
    descriptiveNegativeName:
    negativeButton:
    positiveButton:
    altNegativeButton:
    altPositiveButton:
    gravity: 0
    dead: 0.19
    sensitivity: 1
    snap: 0
    invert: 0
    type: 2
    axis: 0
    joyNum: 0
  - serializedVersion: 3
    m_Name: Vertical
    descriptiveName:
    descriptiveNegativeName:
    negativeButton:
    positiveButton:
    altNegativeButton:
    altPositiveButton:
    gravity: 0
    dead: 0.19
    sensitivity: 1
    snap: 0
    invert: 1
    type: 2
    axis: 1
    joyNum: 0
  - serializedVersion: 3
    m_Name: Fire1
    descriptiveName:
    descriptiveNegativeName:
    negativeButton:
    positiveButton: joystick button 0
    altNegativeButton:
    altPositiveButton:
    gravity: 1000
    dead: 0.001
    sensitivity: 1000
    snap: 0
    invert: 0
    type: 0
    axis: 0
    joyNum: 0
  - serializedVersion: 3
    m_Name: Fire2
    descriptiveName:
    descriptiveNegativeName:
    negativeButton:
    positiveButton: joystick button 1
    altNegativeButton:
    altPositiveButton:
    gravity: 1000
    dead: 0.001
    sensitivity: 1000
    snap: 0
    invert: 0
    type: 0
    axis: 0
    joyNum: 0
  - serializedVersion: 3
    m_Name: Fire3
    descriptiveName:
    descriptiveNegativeName:
    negativeButton:
    positiveButton: joystick button 2
    altNegativeButton:
    altPositiveButton:
    gravity: 1000
    dead: 0.001
    sensitivity: 1000
    snap: 0
    invert: 0
    type: 0
    axis: 0
    joyNum: 0
  - serializedVersion: 3
    m_Name: LeftRight
    descriptiveName:
    descriptiveNegativeName:
    negativeButton:
    positiveButton:
    altNegativeButton:
    altPositiveButton:
    gravity: 0
    dead: 0.19
    sensitivity: 1
    snap: 0
    invert: 0
    type: 2
    axis: 5
    joyNum: 0
  - serializedVersion: 3
    m_Name: UpDown
    descriptiveName:
    descriptiveNegativeName:
    negativeButton:
    positiveButton:
    altNegativeButton:
    altPositiveButton:
    gravity: 0
    dead: 0.19
    sensitivity: 1
    snap: 0
    invert: 0
    type: 2
    axis: 6
    joyNum: 0
  - serializedVersion: 3
    m_Name: FrontBack
    descriptiveName:
    descriptiveNegativeName:
    negativeButton:
    positiveButton:
    altNegativeButton:
    altPositiveButton:
    gravity: 0
    dead: 0.19
    sensitivity: 1
    snap: 0
    invert: 0
    type: 2
    axis: 4
    joyNum: 0
  - serializedVersion: 3
    m_Name: Side
    descriptiveName:
    descriptiveNegativeName:
    negativeButton:
    positiveButton:
    altNegativeButton:
    altPositiveButton:
    gravity: 0
    dead: 0.19
    sensitivity: 1
    snap: 0
    invert: 0
    type: 2
    axis: 3
    joyNum: 0
  - serializedVersion: 3
    m_Name: Submit
    descriptiveName:
    descriptiveNegativeName:
    negativeButton:
    positiveButton: return
    altNegativeButton:
    altPositiveButton: joystick button 0
    gravity: 1000
    dead: 0.001
    sensitivity: 1000
    snap: 0
    invert: 0
    type: 0
    axis: 0
    joyNum: 0
  - serializedVersion: 3
    m_Name: Submit
    descriptiveName:
    descriptiveNegativeName:
    negativeButton:
    positiveButton: enter
    altNegativeButton:
    altPositiveButton: space
    gravity: 1000
    dead: 0.001
    sensitivity: 1000
    snap: 0
    invert: 0
    type: 0
    axis: 0
    joyNum: 0
  - serializedVersion: 3
    m_Name: Cancel
    descriptiveName:
    descriptiveNegativeName:
    negativeButton:
    positiveButton: escape
    altNegativeButton:
    altPositiveButton: joystick button 1
    gravity: 1000
    dead: 0.001
    sensitivity: 1000
    snap: 0
    invert: 0
    type: 0
    axis: 0
    joyNum: 0
  - serializedVersion: 3
    m_Name: Oculus_GearVR_LThumbstickX
    descriptiveName:
    descriptiveNegativeName:
    negativeButton:
    positiveButton:
    altNegativeButton:
    altPositiveButton:
    gravity: 0
    dead: 0.001
    sensitivity: 1
    snap: 0
    invert: 0
    type: 2
    axis: 0
    joyNum: 0
  - serializedVersion: 3
    m_Name: Oculus_GearVR_LThumbstickY
    descriptiveName:
    descriptiveNegativeName:
    negativeButton:
    positiveButton:
    altNegativeButton:
    altPositiveButton:
    gravity: 0
    dead: 0.001
    sensitivity: 1
    snap: 0
    invert: 1
    type: 2
    axis: 1
    joyNum: 0
  - serializedVersion: 3
    m_Name: Oculus_GearVR_RThumbstickX
    descriptiveName:
    descriptiveNegativeName:
    negativeButton:
    positiveButton:
    altNegativeButton:
    altPositiveButton:
    gravity: 0
    dead: 0.001
    sensitivity: 1
    snap: 0
    invert: 0
    type: 2
    axis: 2
    joyNum: 0
  - serializedVersion: 3
    m_Name: Oculus_GearVR_RThumbstickY
    descriptiveName:
    descriptiveNegativeName:
    negativeButton:
    positiveButton:
    altNegativeButton:
    altPositiveButton:
    gravity: 0
    dead: 0.001
    sensitivity: 1
    snap: 0
    invert: 1
    type: 2
    axis: 3
    joyNum: 0
  - serializedVersion: 3
    m_Name: Oculus_GearVR_DpadX
    descriptiveName:
    descriptiveNegativeName:
    negativeButton:
    positiveButton:
    altNegativeButton:
    altPositiveButton:
    gravity: 0
    dead: 0.001
    sensitivity: 1
    snap: 0
    invert: 0
    type: 2
    axis: 4
    joyNum: 0
  - serializedVersion: 3
    m_Name: Oculus_GearVR_DpadY
    descriptiveName:
    descriptiveNegativeName:
    negativeButton:
    positiveButton:
    altNegativeButton:
    altPositiveButton:
    gravity: 0
    dead: 0.001
    sensitivity: 1
    snap: 0
    invert: 1
    type: 2
    axis: 5
    joyNum: 0
  - serializedVersion: 3
    m_Name: Oculus_GearVR_LIndexTrigger
    descriptiveName:
    descriptiveNegativeName:
    negativeButton:
    positiveButton:
    altNegativeButton:
    altPositiveButton:
    gravity: 0
    dead: 0.001
    sensitivity: 1
    snap: 0
    invert: 0
    type: 2
    axis: 12
    joyNum: 0
  - serializedVersion: 3
    m_Name: Oculus_GearVR_RIndexTrigger
    descriptiveName:
    descriptiveNegativeName:
    negativeButton:
    positiveButton:
    altNegativeButton:
    altPositiveButton:
    gravity: 0
    dead: 0.001
    sensitivity: 1
    snap: 0
    invert: 0
    type: 2
    axis: 11
    joyNum: 0
